PCA tidyverse style | Claus O. Wilke
…
Look at the data in PC coordinates

Next, we plot the rotation matrix. The rotation matrix is stored as pca_fit$rotation, but here we’ll extract it using the tidy() function from broom. When applied to prcomp objects, the tidy() function takes an additional argument matrix, which we set to matrix = "rotation" to extract the rotation matrix.

# extract rotation matrix
pca_fit %>%
  tidy(matrix = "rotation")

# # A tibble: 81 x 3
#    column               PC    value
#    <chr>             <dbl>    <dbl>
#  1 clump_thickness       1 -0.302  
#  2 clump_thickness       2 -0.141  
#  3 clump_thickness       3  0.866  
#  4 clump_thickness       4 -0.108  
#  5 clump_thickness       5  0.0803 
#  6 clump_thickness       6 -0.243  
#  7 clump_thickness       7 -0.00852
#  8 clump_thickness       8  0.248  
#  9 clump_thickness       9 -0.00275
# 10 uniform_cell_size     1 -0.381  
# # … with 71 more rows
…
